<svg width="72" height="72" viewBox="0 0 72 72" fill="none" xmlns="http://www.w3.org/2000/svg">
<rect width="72" height="72" rx="36" fill="url(#paint0_linear_590_10040)"/>
<path d="M35.9499 19.3333C26.7499 19.3333 19.2832 26.8 19.2832 36C19.2832 45.2 26.7499 52.6667 35.9499 52.6667C45.1499 52.6667 52.6165 45.2 52.6165 36C52.6165 26.8 45.1665 19.3333 35.9499 19.3333ZM40.9499 39.7167L36.1165 42.5C35.5165 42.85 34.8499 43.0167 34.1999 43.0167C33.5332 43.0167 32.8832 42.85 32.2832 42.5C31.0832 41.8 30.3665 40.5667 30.3665 39.1667V33.5833C30.3665 32.2 31.0832 30.95 32.2832 30.25C33.4832 29.55 34.9165 29.55 36.1332 30.25L40.9665 33.0333C42.1665 33.7333 42.8832 34.9667 42.8832 36.3667C42.8832 37.7667 42.1665 39.0167 40.9499 39.7167Z" fill="white"/>
<defs>
<linearGradient id="paint0_linear_590_10040" x1="36" y1="0" x2="36" y2="72" gradientUnits="userSpaceOnUse">
<stop stop-color="#00E171"/>
<stop offset="1" stop-color="#00743A"/>
</linearGradient>
</defs>
</svg>
