<svg width="35" height="36" viewBox="0 0 35 36" fill="none" xmlns="http://www.w3.org/2000/svg">
<path d="M17.5022 33.3125C14.4735 33.3129 11.5127 32.4152 8.99421 30.7328C6.47574 29.0504 4.51276 26.659 3.35352 23.8609C2.19428 21.0628 1.89086 17.9838 2.48163 15.0132C3.07241 12.0427 4.53084 9.31405 6.67247 7.17244C9.54412 4.30078 13.4389 2.6875 17.5 2.6875C21.5611 2.6875 25.4559 4.30078 28.3276 7.17244C31.1992 10.0441 32.8125 13.9389 32.8125 18C32.8125 22.0612 31.1992 25.956 28.3276 28.8276C26.9092 30.2537 25.2222 31.3843 23.364 32.1542C21.5059 32.924 19.5135 33.3177 17.5022 33.3125ZM17.5022 4.16216C9.87006 4.16216 3.66221 10.3695 3.66221 18.0017C3.66221 25.6339 9.87006 31.8379 17.5022 31.8379C25.1344 31.8379 31.3378 25.63 31.3378 18.0017C31.3378 10.3733 25.1305 4.16216 17.5022 4.16216Z" fill="white"/>
<path d="M21.3872 26.652C21.114 26.6491 20.8444 26.5895 20.5954 26.477C20.5499 26.4573 20.5069 26.432 20.4676 26.4017L14.0986 21.5175L11.8556 20.4335L7.96306 19.1232L7.95372 19.1203C7.85569 19.0853 6.99152 18.7563 6.8894 17.9383C6.80129 17.2348 7.41106 16.7622 7.96598 16.5679L23.5626 10.451C23.8176 10.3407 24.6321 10.0426 25.2151 10.4224C25.3936 10.5391 25.693 10.8191 25.693 11.3867C25.693 11.4259 25.6891 11.465 25.6813 11.5034L22.9003 25.5278C22.8929 25.5649 22.8821 25.6012 22.8682 25.6363C22.8414 25.7022 22.5934 26.2856 21.9731 26.54C21.787 26.6151 21.588 26.6531 21.3872 26.652ZM21.148 25.3773C21.2968 25.4327 21.4176 25.442 21.508 25.4053C21.5945 25.3621 21.666 25.2941 21.7134 25.2099L24.4402 11.4678C24.3039 11.4887 24.1706 11.5261 24.0434 11.5793L24.0206 11.5886L8.40244 17.7131L8.37735 17.7225C8.2984 17.7522 8.22335 17.7914 8.15387 17.8392C8.21726 17.8922 8.28852 17.9351 8.36509 17.9663L12.2834 19.2854C12.3075 19.2937 12.331 19.3034 12.354 19.3146L14.688 20.4423C14.7257 20.4601 14.7613 20.482 14.7942 20.5076L21.148 25.3773Z" fill="white"/>
<path d="M16.8826 22.88L14.3437 25.1943C14.3437 25.269 13.9283 25.269 13.9283 25.1943L14.4126 20.9518L14.4394 20.8766C14.4394 20.8766 21.5582 14.479 21.85 14.2066C22.1417 13.9341 22.0443 13.8758 22.0443 13.8758C22.0641 13.5456 21.5191 13.8758 21.5191 13.8758L12.0879 19.8655C12.0879 19.8655 13.2742 23.7551 13.5076 24.4937C13.741 25.2323 13.8787 25.2194 13.9283 25.2194" fill="white"/>
<path d="M14.1361 25.8627C14.0356 25.8638 13.9354 25.8518 13.838 25.8271C13.3128 25.7717 13.0911 25.2081 12.9236 24.6778C12.6902 23.9445 11.55 20.2031 11.5016 20.0439C11.4626 19.9157 11.4667 19.7783 11.5133 19.6527C11.5599 19.5271 11.6464 19.4202 11.7595 19.3484L21.1925 13.3587L21.203 13.3522C21.5041 13.1696 21.9411 12.9987 22.3117 13.2222C22.4093 13.2967 22.4913 13.3898 22.5529 13.4962C22.6145 13.6025 22.6544 13.7199 22.6705 13.8417C22.7079 14.1953 22.4756 14.4619 22.2691 14.6544C21.9983 14.9099 16.0652 20.2405 15.0032 21.1949L14.6747 24.0635L16.4702 22.43C16.5903 22.3205 16.7489 22.2632 16.9113 22.2707C17.0736 22.2782 17.2263 22.3499 17.3358 22.4699C17.4453 22.59 17.5026 22.7486 17.4951 22.911C17.4876 23.0733 17.4159 23.2259 17.2958 23.3354L14.8083 25.6025C14.6864 25.746 14.4775 25.8627 14.1361 25.8627ZM12.8098 20.1325C12.989 20.7189 13.314 21.783 13.597 22.7053L13.8059 20.8816C13.8111 20.8353 13.8217 20.7896 13.8374 20.7457L13.8642 20.671C13.8984 20.575 13.9559 20.489 14.0317 20.4207L18.0579 16.799L12.8098 20.1325Z" fill="white"/>
<path d="M16.8827 23.4925C16.746 23.4926 16.6133 23.4468 16.5057 23.3624L14.0375 21.4343C13.9741 21.3847 13.9211 21.3232 13.8814 21.2532C13.8418 21.1832 13.8164 21.106 13.8066 21.0262C13.7968 20.9463 13.8028 20.8653 13.8243 20.7878C13.8458 20.7103 13.8824 20.6377 13.9319 20.5743C13.9814 20.5109 14.043 20.4579 14.113 20.4183C14.183 20.3787 14.2602 20.3532 14.3401 20.3434C14.4199 20.3336 14.5009 20.3396 14.5785 20.3611C14.656 20.3826 14.7286 20.4192 14.792 20.4687L17.2602 22.3969C17.3609 22.4754 17.4345 22.5834 17.4708 22.7057C17.5072 22.8281 17.5043 22.9588 17.4627 23.0795C17.4211 23.2002 17.3429 23.3048 17.2389 23.3789C17.1349 23.4529 17.0104 23.4927 16.8827 23.4925Z" fill="white"/>
</svg>
