<svg width="7" height="13" viewBox="0 0 7 13" fill="none" xmlns="http://www.w3.org/2000/svg">
<path d="M6.00022 11.78L1.65355 7.43333C1.14022 6.92 1.14022 6.08 1.65355 5.56667L6.00022 1.22" stroke="#A0A8B3" stroke-width="1.5" stroke-miterlimit="10" stroke-linecap="round" stroke-linejoin="round"/>
</svg>
